<?xml version="1.0" encoding="iso-8859-1"?>
<!-- Generator: Adobe Illustrator 16.0.0, SVG Export Plug-In . SVG Version: 6.00 Build 0)  -->
<!DOCTYPE svg PUBLIC "-//W3C//DTD SVG 1.1//EN" "http://www.w3.org/Graphics/SVG/1.1/DTD/svg11.dtd">
<svg version="1.1" id="Layer_1" xmlns="http://www.w3.org/2000/svg" xmlns:xlink="http://www.w3.org/1999/xlink" x="0px" y="0px"
	 width="60.882px" preserveAspectRatio="none" height="61.06px" viewBox="0 0 60.882 61.06" style="enable-background:new 0 0 60.882 61.06;"
	 xml:space="preserve">
<g id="Operation_Direction" style="display:none;">
	<rect x="1" y="1.06" style="display:inline;fill:none;stroke:#000000;stroke-miterlimit:10;" width="59" height="59"/>
</g>
<g>
	<g id="Operation_Direction_1_">
		<rect x="1" y="1.064" style="fill:none;stroke:#000000;stroke-miterlimit:10;" width="59" height="59"/>
	</g>
	<polygon style="fill:#DBDADA;stroke:#000000;stroke-linejoin:bevel;stroke-miterlimit:10;" points="1,31.099 30.548,16.105 
		60,0.998 60,30.805 60,60.052 30.548,45.501 	"/>
</g>
</svg>
