<?xml version="1.0" encoding="utf-8"?>
<!-- Generator: Adobe Illustrator 16.0.4, SVG Export Plug-In . SVG Version: 6.00 Build 0)  -->
<!DOCTYPE svg PUBLIC "-//W3C//DTD SVG 1.1//EN" "http://www.w3.org/Graphics/SVG/1.1/DTD/svg11.dtd">
<svg version="1.1" id="Layer_1" xmlns="http://www.w3.org/2000/svg" xmlns:xlink="http://www.w3.org/1999/xlink" x="0px" y="0px"
	 width="423px" height="207px" viewBox="0 0 600 1229.883" enable-background="new 0 0 600 1229.883" xml:space="preserve">
<g id="Layer_1_1_">
	<g id="Layer_3">
		
			<rect x="1.137" y="1218.252" opacity="0.4" fill="#666666" stroke="#666666" stroke-miterlimit="10" enable-background="new    " width="597.971" height="8.771"/>
		
			<rect x="50.846" y="1171.08" opacity="0.4" fill="#999999" stroke="#666666" stroke-miterlimit="10" enable-background="new    " width="497.091" height="8.771"/>
		
			<rect x="545.014" y="37.025" opacity="0.7" fill="#999999" stroke="#666666" stroke-miterlimit="10" enable-background="new    " width="14.618" height="1185.475"/>
	</g>
	
		<image overflow="visible" enable-background="new    " width="600" height="1381" xlink:href=""  transform="matrix(1.0135 0 0 0.886 -4.6147 -0.1025)">
	</image>
	<rect x="1.137" y="0.474" fill="#333333" stroke="#666666" stroke-miterlimit="10" width="4.385" height="1218.765"/>
	<rect x="594.722" y="0.474" fill="#333333" stroke="#666666" stroke-miterlimit="10" width="4.387" height="1218.765"/>
</g>
<rect id="left" x="5.5" y="0.5" fill="#C7B299" stroke="#000000" stroke-miterlimit="10" width="46" height="1223"/>
<rect id="bottom" x="51.5" y="1175.5" fill="#C7B299" stroke="#000000" stroke-miterlimit="10" width="497" height="47"/>
<rect id="right" x="548.5" y="0.5" fill="#C7B299" stroke="#000000" stroke-miterlimit="10" width="46" height="1223"/>
<rect id="top_1_" x="51.5" y="0.5" fill="#C7B299" stroke="#000000" stroke-miterlimit="10" width="497" height="47"/>
</svg>
