<?xml version="1.0" encoding="utf-8"?>
<!-- Generator: Adobe Illustrator 15.0.2, SVG Export Plug-In  -->
<!DOCTYPE svg PUBLIC "-//W3C//DTD SVG 1.1//EN" "http://www.w3.org/Graphics/SVG/1.1/DTD/svg11.dtd" [
	<!ENTITY ns_flows "http://ns.adobe.com/Flows/1.0/">
]>
<svg version="1.1"
	 xmlns="http://www.w3.org/2000/svg" xmlns:xlink="http://www.w3.org/1999/xlink" xmlns:a="http://ns.adobe.com/AdobeSVGViewerExtensions/3.0/"
	 x="0px" y="0px" width="28px" height="28px" viewBox="0 0 28 28" overflow="visible" enable-background="new 0 0 28 28"
	 xml:space="preserve">
<defs>
</defs>
<g>
	<path fill="#999999" d="M17.451,1.25c0.405,0,0.742,0.388,0.898,0.81v15.201c-0.183,0.497-0.591,0.906-1.09,1.089H2.06
		c-0.422-0.156-0.81-0.493-0.81-0.898V1.867c0-0.34,0.276-0.617,0.617-0.617H17.451 M17.451,0H1.867C0.835,0,0,0.837,0,1.867v15.584
		c0,1.031,0.835,1.866,1.867,2.148h15.584c1.03-0.282,1.867-1.117,2.148-2.148V1.867C19.318,0.837,18.481,0,17.451,0L17.451,0z"/>
</g>
<g>
	<path fill="#999999" d="M25.94,9.65c0.422,0.156,0.81,0.493,0.81,0.898v15.584c0,0.341-0.276,0.617-0.617,0.617H10.549
		c-0.405,0-0.742-0.388-0.898-0.809V10.74c0.175-0.477,0.555-0.893,0.893-1.09H25.94 M26.133,8.4H10.268
		C9.519,8.683,8.682,9.52,8.4,10.549v15.584C8.682,27.165,9.519,28,10.549,28h15.584C27.165,28,28,27.165,28,26.133V10.549
		C28,9.52,27.165,8.683,26.133,8.4L26.133,8.4z"/>
</g>
</svg>
