<?xml version="1.0" encoding="utf-8"?>
<!-- Generator: Adobe Illustrator 16.0.4, SVG Export Plug-In . SVG Version: 6.00 Build 0)  -->
<!DOCTYPE svg PUBLIC "-//W3C//DTD SVG 1.1//EN" "http://www.w3.org/Graphics/SVG/1.1/DTD/svg11.dtd">
<svg version="1.1" id="Layer_1" xmlns="http://www.w3.org/2000/svg" xmlns:xlink="http://www.w3.org/1999/xlink" x="0px" y="0px"
	 width="125px" height="125px" viewBox="0 0 125 125" enable-background="new 0 0 125 125" xml:space="preserve">
<rect x="0.5" y="0.5" fill="#FFFFFF" stroke="#000000" stroke-miterlimit="10" width="124" height="124"/>
<rect x="0.5" y="59.5" fill="#999999" stroke="#000000" stroke-miterlimit="10" width="124" height="10"/>
<rect x="7.5" y="64.5" fill="#CCCCCC" stroke="#000000" stroke-miterlimit="10" width="109" height="5"/>
<rect x="31.5" y="103.5" display="none" stroke="#000000" stroke-miterlimit="10" width="66" height="17"/>
<text transform="matrix(1 0 0 1 37.8823 111.5742)" font-family="'MyriadPro-Regular'" font-size="16.4997">Outside</text>
<rect x="31.5" y="5.5" display="none" stroke="#000000" stroke-miterlimit="10" width="66" height="17"/>
<text transform="matrix(1 0 0 1 42.8823 22.5747)" font-family="'MyriadPro-Regular'" font-size="16.4997">Inside</text>
<g id="Left_Out">
	<rect x="7.5" y="69.5" fill="#CCCCCC" stroke="#000000" stroke-miterlimit="10" width="4" height="34"/>
	<path fill="#ED1C24" stroke="#000000" stroke-miterlimit="10" d="M14.304,103.5c17.241-2,30.899-15.629,30.899-33.133
		c0-0.201-0.011-0.867-0.016-0.867H12.5v34H14.304z"/>
	<text transform="matrix(1 0 0 1 19.8823 89.5742)" fill="#FFFFFF" font-family="'MyriadPro-Bold'" font-size="16.4997">L</text>
</g>
<g id="Right_Out">
	<rect x="111.5" y="69.5" fill="#CCCCCC" stroke="#000000" stroke-miterlimit="10" width="4" height="34"/>
	<path fill="#ED1C24" stroke="#000000" stroke-miterlimit="10" d="M108.399,103.5C91.158,101.5,77.5,87.871,77.5,70.367
		c0-0.201,0.012-0.867,0.016-0.867H110.5v34H108.399z"/>
	<text transform="matrix(1 0 0 1 93.8203 89.5742)" fill="#FFFFFF" font-family="'MyriadPro-Bold'" font-size="16.4997">R</text>
</g>
</svg>
