<?xml version="1.0" encoding="utf-8"?>
<!-- Generator: Adobe Illustrator 16.0.4, SVG Export Plug-In . SVG Version: 6.00 Build 0)  -->
<!DOCTYPE svg PUBLIC "-//W3C//DTD SVG 1.1//EN" "http://www.w3.org/Graphics/SVG/1.1/DTD/svg11.dtd">
<svg version="1.1" xmlns="http://www.w3.org/2000/svg" xmlns:xlink="http://www.w3.org/1999/xlink" x="0px" y="0px" width="121px"
	 height="121px" viewBox="0 0 121 121" enable-background="new 0 0 121 121" xml:space="preserve">
<g id="Layer_3">
</g>
<g id="Layer_3_copy">
	<g>
		<rect x="44.5" y="9.5" fill="#B3B3B3" stroke="#000000" stroke-miterlimit="10" width="32" height="13"/>
		<path fill="#B3B3B3" stroke="#000000" stroke-miterlimit="10" d="M43.375,23.5c-0.759,0-1.875-0.715-1.875-0.981V9.481
			c0-0.266,1.116,0.019,1.875,0.019h0.25c0.759,0,0.875-0.285,0.875-0.019v13.037c0,0.266-0.116,0.981-0.875,0.981H43.375z"/>
		<path fill="#B3B3B3" stroke="#000000" stroke-miterlimit="10" d="M77.625,23.5c0.76,0,1.875-0.715,1.875-0.981V9.481
			c0-0.266-1.115,0.019-1.875,0.019h-0.25c-0.76,0-0.875-0.285-0.875-0.019v13.037c0,0.266,0.115,0.981,0.875,0.981H77.625z"/>
		<path fill="#B3B3B3" stroke="#000000" stroke-miterlimit="10" d="M80.5,7.656c0,0.949-0.615,1.844-1.375,1.844h-37.25
			c-0.759,0-1.375-0.895-1.375-1.844V7.344c0-0.949,0.616-1.844,1.375-1.844h37.25c0.76,0,1.375,0.895,1.375,1.844V7.656z"/>
	</g>
</g>
<g id="Layer_3_copy_2">
	<g>
		
			<rect x="88.563" y="21.172" transform="matrix(0.7812 0.6242 -0.6242 0.7812 38.8341 -55.4719)" fill="#B3B3B3" stroke="#000000" stroke-miterlimit="10" width="20" height="13"/>
		<path fill="#B3B3B3" stroke="#000000" stroke-miterlimit="10" d="M102.049,40.056c0.732,0.585,1.654,0.407,1.82,0.199
			l8.139-10.186c0.166-0.208-0.488-0.366-1.221-0.951l-0.241-0.193c-0.731-0.585-0.716-0.937-0.882-0.729l-8.139,10.185
			c-0.166,0.208-0.45,0.896,0.281,1.481L102.049,40.056z"/>
		<path fill="#B3B3B3" stroke="#000000" stroke-miterlimit="10" d="M85.715,27.006c-0.731-0.585-0.762-1.524-0.596-1.732
			l8.139-10.186c0.166-0.208,0.465,0.396,1.197,0.98l0.241,0.193c0.731,0.585,1.071,0.492,0.905,0.7l-8.139,10.185
			c-0.166,0.208-0.773,0.638-1.506,0.053L85.715,27.006z"/>
		<path fill="#B3B3B3" stroke="#000000" stroke-miterlimit="10" d="M113.929,29.268c-0.593,0.742-1.464,1.19-1.85,0.883
			L93.163,15.037c-0.386-0.308-0.14-1.256,0.452-1.998l0.195-0.244c0.593-0.742,1.464-1.19,1.85-0.883l18.916,15.114
			c0.385,0.308,0.14,1.257-0.453,1.998L113.929,29.268z"/>
	</g>
</g>
<g id="Layer_3_copy_3">
	<g>
		
			<rect x="12.234" y="21.172" transform="matrix(-0.7812 0.6242 -0.6242 -0.7812 56.8783 35.4114)" fill="#B3B3B3" stroke="#000000" stroke-miterlimit="10" width="20" height="13"/>
		<path fill="#B3B3B3" stroke="#000000" stroke-miterlimit="10" d="M18.749,40.056c-0.732,0.585-1.654,0.407-1.82,0.199L8.79,30.07
			c-0.166-0.208,0.488-0.366,1.221-0.951l0.241-0.193c0.731-0.585,0.716-0.937,0.882-0.729l8.139,10.185
			c0.166,0.208,0.45,0.896-0.281,1.481L18.749,40.056z"/>
		<path fill="#B3B3B3" stroke="#000000" stroke-miterlimit="10" d="M35.083,27.006c0.731-0.585,0.762-1.524,0.596-1.732
			L27.54,15.088c-0.166-0.208-0.465,0.396-1.197,0.98l-0.241,0.193c-0.731,0.585-1.071,0.492-0.905,0.7l8.139,10.185
			c0.166,0.208,0.773,0.638,1.506,0.053L35.083,27.006z"/>
		<path fill="#B3B3B3" stroke="#000000" stroke-miterlimit="10" d="M6.869,29.268c0.593,0.742,1.464,1.19,1.85,0.883l18.916-15.114
			c0.386-0.308,0.14-1.256-0.452-1.998l-0.195-0.244c-0.593-0.742-1.464-1.19-1.85-0.883L6.222,27.026
			c-0.385,0.308-0.14,1.257,0.453,1.998L6.869,29.268z"/>
	</g>
</g>
<g id="Frame">
	<rect x="0.5" y="0.5" fill="none" stroke="#000000" stroke-miterlimit="10" width="120" height="120"/>
</g>
<g id="Layer_9">
	<rect y="74" fill="#FFFFFF" width="121" height="47"/>
</g>
<g id="Layer_6">
	<g id="Layer_7">
		<g>
			<path fill="none" d="M37.328,73c0.001,0,0.005-0.056,0.005-0.084C37.333,61.364,27.719,52,16.166,52
				C15.857,52,16,52.033,15,52.046V49h23v24H37.328z"/>
			<path fill="#FF0000" d="M37.333,72.916c0,0.028-0.004,0.084-0.005,0.084H15V52.046C16,52.033,15.857,52,16.166,52
				C27.719,52,37.333,61.364,37.333,72.916z"/>
		</g>
	</g>
	<g id="Layer_7_copy">
		<g>
			<path fill="none" d="M82.672,73c-0.001,0-0.005-0.056-0.005-0.084C82.667,61.364,92.281,52,103.834,52
				c0.309,0,0.166,0.033,1.166,0.046V49H82v24H82.672z"/>
			<path fill="#FF0000" d="M82.667,72.916c0,0.028,0.004,0.084,0.005,0.084H105V52.046c-1-0.013-0.857-0.046-1.166-0.046
				C92.281,52,82.667,61.364,82.667,72.916z"/>
		</g>
	</g>
	<rect x="0.5" y="73.5" fill="#808080" stroke="#000000" stroke-miterlimit="10" width="120" height="5"/>
	<rect x="14.5" y="73.5" fill="#E6E6E6" stroke="#000000" stroke-miterlimit="10" width="91" height="5"/>
	<rect x="16.5" y="75.5" display="none" fill="#999999" stroke="#000000" stroke-miterlimit="10" width="21" height="2"/>
	<rect x="39.5" y="75.5" display="none" fill="#999999" stroke="#000000" stroke-miterlimit="10" width="21" height="2"/>
	<rect x="62.5" y="75.5" display="none" fill="#999999" stroke="#000000" stroke-miterlimit="10" width="21" height="2"/>
	<rect x="103.5" y="52.5" fill="#999999" stroke="#000000" stroke-miterlimit="10" width="1" height="21"/>
	<rect x="15.5" y="52.5" fill="#999999" stroke="#000000" stroke-miterlimit="10" width="1" height="21"/>
</g>
<g id="Layer_8">
	<text transform="matrix(1 0 0 1 20 109.334)" display="none" font-family="'MyriadPro-Regular'" font-size="12">Out-swing Right</text>
	<text transform="matrix(1 0 0 1 26 52.334)" font-family="'MyriadPro-Regular'" font-size="12">In-swing Both</text>
</g>
</svg>
