SalesPerson,quoted,"Quote Number",name,email,zip,leadType,phone
"Fracka Future","2017-04-19 15:15:13",FF32137,Fracka,fracka@fracka.com,frackaTest,"Home Owner",234234,
"Fracka Future","2017-04-19 15:19:05",FF32138,fracka,fracka@fracka.com,frackaTest,"Home Owner",fgdfg,
"Fracka Future","2017-04-19 15:19:42",FF32139,fracka,fracka@fracka.com,frackaTest,"Home Owner",fgdfg,
"Fracka Future","2017-04-19 15:21:31",FF32140,fracka,fracka@fracka.com,frackaTest,"Home Owner",fgdfg,
"Fracka Future","2017-04-19 15:22:31",FF32141,fracka,fracka@fracka.com,frackaTest,"Home Owner",fgdfg,
"Fracka Future","2017-04-19 15:23:45",FF32142,fracka,fracka@fracka.com,frackaTest,"Home Owner",fgdfg,
"Fracka Future","2017-04-19 15:26:16",FF32143,fracka,fracka@fracka.com,frackaTest,"Home Owner",fgdfg,
"Fracka Future","2017-04-19 15:28:00",FF32144,fracka,fracka@fracka.com,frackaTest,"Home Owner",fgdfg,
"Fracka Future","2017-04-19 15:29:11",FF32145,fracka,fracka@fracka.com,frackaTest,"Home Owner",fgdfg,
"Fracka Future","2017-04-19 15:36:29",FF32146,fracka,fracka@fracka.com,frackaTest,"Home Owner",fgdfg,
"Fracka Future","2017-04-19 15:40:17",FF32147,fracka,fracka@fracka.com,frackaTest,"Home Owner",fgdfg,
"Fracka Future","2017-04-19 15:42:48",FF32148,fracka,fracka@fracka.com,frackaTest,"Home Owner",fgdfg,
"Fracka Future","2017-04-19 15:47:39",FF32149,fracka,fracka@fracka.com,frackaTest,"Home Owner",fgdfg,
