<?xml version="1.0" encoding="utf-8"?>
<!-- Generator: Adobe Illustrator 15.0.2, SVG Export Plug-In  -->
<!DOCTYPE svg PUBLIC "-//W3C//DTD SVG 1.1//EN" "http://www.w3.org/Graphics/SVG/1.1/DTD/svg11.dtd" [
	<!ENTITY ns_flows "http://ns.adobe.com/Flows/1.0/">
]>
<svg version="1.1"
	 xmlns="http://www.w3.org/2000/svg" xmlns:xlink="http://www.w3.org/1999/xlink" xmlns:a="http://ns.adobe.com/AdobeSVGViewerExtensions/3.0/"
	 x="0px" y="0px" width="60px" height="60px" viewBox="0 0 60 60" overflow="visible" enable-background="new 0 0 60 60"
	 xml:space="preserve">
<defs>
</defs>
<rect fill="#6C6960" width="15" height="15.046"/>
<rect x="15" fill="#FAF4E3" width="15" height="15.046"/>
<rect x="30" fill="#D0D0D0" width="15" height="15.046"/>
<rect x="45" fill="#CAC4B0" width="15" height="15.046"/>
<rect y="14.984" fill="#F4F4F4" width="15" height="15.046"/>
<rect x="45" y="29.97" fill="#282828" width="15" height="15.045"/>
<rect x="30" y="14.984" fill="#0A0A0A" width="15" height="15.046"/>
<rect x="45" y="14.984" fill="#A5A5A5" width="15" height="15.046"/>
<rect y="29.97" fill="#F6F6F6" width="15" height="15.045"/>
<rect x="15" y="29.97" fill="#1C1C1C" width="15" height="15.045"/>
<rect x="30" y="29.97" fill="#FFFFFF" width="15" height="15.045"/>
<rect x="15" y="15.016" fill="#8F8F8F" width="15" height="15.045"/>
<rect y="44.954" fill="#1E1E1D" width="15" height="15.046"/>
<rect x="15" y="44.954" fill="#D7D7D7" width="15" height="15.046"/>
<rect x="30" y="44.954" fill="#9C9C9C" width="15" height="15.046"/>
<rect x="45" y="44.954" fill="#828282" width="15" height="15.046"/>
</svg>
