<?xml version="1.0" encoding="utf-8"?>
<!-- Generator: Adobe Illustrator 16.0.0, SVG Export Plug-In . SVG Version: 6.00 Build 0)  -->
<!DOCTYPE svg PUBLIC "-//W3C//DTD SVG 1.1//EN" "http://www.w3.org/Graphics/SVG/1.1/DTD/svg11.dtd">
<svg version="1.1" xmlns="http://www.w3.org/2000/svg" xmlns:xlink="http://www.w3.org/1999/xlink" x="0px" y="0px" width="121px"
	 height="121px" viewBox="0 0 121 121" enable-background="new 0 0 121 121" xml:space="preserve">
<g id="Layer_4" display="none">
	<rect x="-3.625" y="13.125" display="inline" width="130.375" height="113"/>
</g>
<g id="Layer_1">
	<g id="mail" display="none">
		<rect x="0.146" y="19.383" display="inline" fill="#FFFFFF" width="118.387" height="102.431"/>
		
			<image display="inline" overflow="visible" width="44" height="28" id="Layer_0_2_" xlink:href="12EDDB115A47AEA2.png"  transform="matrix(2.7493 0 0 3.6654 0.1465 19.3828)">
		</image>
	</g>
	
		<rect x="3.021" y="17.679" fill="#FFFFFF" stroke="#939598" stroke-width="4" stroke-miterlimit="10" width="115.512" height="100.838"/>
	<polygon fill="#FFFFFF" stroke="#939598" stroke-width="4" stroke-miterlimit="10" points="61.035,48.375 88.699,82.916 
		116.363,117.456 61.035,117.456 5.707,117.456 33.371,82.916 	"/>
	<polygon fill="#FFFFFF" stroke="#939598" stroke-width="4" stroke-miterlimit="10" points="60.64,83 33.277,50.34 5.916,17.679 
		60.64,17.679 115.363,17.679 88.002,50.34 	"/>
</g>
<g id="Layer_3" display="none">
	<polygon display="inline" fill="#FFFFFF" points="88.5,116.625 32.375,116.625 27.625,31.125 92.875,31.125 	"/>
	<path display="inline" fill="#989898" d="M99.674,28.423h-20.9v-4.177c0-4.615-3.75-8.362-8.361-8.362H49.504
		c-4.605,0-8.352,3.747-8.352,8.362v4.177H20.25v4.185h4.299l4.184,79.423c0,4.622,3.747,8.362,8.362,8.362h45.983
		c4.61,0,8.351-3.74,8.351-8.362l4.127-79.423h4.118V28.423L99.674,28.423z M45.327,24.247c0-2.304,1.883-4.178,4.177-4.178h20.908
		c2.304,0,4.185,1.874,4.185,4.178v4.177h-29.27V24.247z M87.267,111.821l-0.008,0.102v0.108c0,2.305-1.865,4.186-4.177,4.186
		H37.099c-2.304,0-4.177-1.881-4.177-4.186v-0.108l-0.007-0.109l-4.181-79.206H91.37L87.267,111.821z"/>
	<rect x="57.866" y="40.973" display="inline" fill="#989898" width="4.185" height="66.882"/>
	
		<rect x="11.924" y="72.39" transform="matrix(-0.064 -0.9979 0.9979 -0.064 -26.0551 124.5244)" display="inline" fill="#989898" width="66.891" height="4.181"/>
	
		<rect x="72.519" y="40.903" transform="matrix(-0.9981 -0.0618 0.0618 -0.9981 144.4706 153.2882)" display="inline" fill="#989898" width="4.177" height="67.01"/>
</g>
<g id="Layer_2" display="none">
	<polygon display="inline" fill="#FFFFFF" points="86.375,76.75 37,75.875 37.625,39.5 61.888,18.5 86.375,18.5 	"/>
	<rect x="2.875" y="61.312" display="inline" fill="#FFFFFF" width="115.375" height="57.438"/>
	<polygon display="inline" fill="#989898" points="89.19,58.443 89.19,62.684 117.291,62.684 117.291,117.288 4.366,117.288 
		4.366,75.397 4.366,62.684 16.559,62.684 35.645,62.684 35.645,58.443 15.5,58.443 0.126,58.443 0.126,75.936 0.126,121 121,121 
		121,58.443 	"/>
	<path display="inline" fill="#989898" d="M34.054,36.704v42.412h55.667V16.028H56.853 M86.009,74.876H38.298v-31.81h23.857V20.268
		h23.857v54.608H86.009z"/>
</g>
<g id="Layer_5" display="none">
	<path display="inline" fill="#989898" d="M60.33,31.072c-22.052,0-39.244,14.884-60.33,39.012
		c18.162,20.631,33.409,39.041,60.33,39.041c26.916,0,46.701-23.307,60.316-38.604C106.712,52.594,86.917,31.072,60.33,31.072
		 M60.33,104.792c-23.895,0-38.326-15.989-54.78-34.705c19.578-22.014,35.148-34.682,54.78-34.682
		c23.237,0,41.395,18.071,54.908,34.942C101.947,85.284,83.953,104.792,60.33,104.792"/>
	<path display="inline" fill="#989898" d="M61.444,44.084c-14.349,0-26.021,11.667-26.021,26.015s11.672,26.013,26.021,26.013
		c14.336,0,26.007-11.665,26.007-26.013S75.78,44.084,61.444,44.084 M61.444,91.775c-11.957,0-21.69-9.722-21.69-21.677
		c0-11.956,9.73-21.683,21.69-21.683c11.955,0,21.671,9.727,21.671,21.683C83.115,82.054,73.399,91.775,61.444,91.775"/>
	<path display="inline" fill="#989898" d="M61.444,54.919c-8.373,0-15.178,6.815-15.178,15.18c0,8.363,6.806,15.18,15.178,15.18
		c8.364,0,15.18-6.816,15.18-15.18C76.624,61.734,69.809,54.919,61.444,54.919 M61.444,80.94c-5.98,0-10.843-4.864-10.843-10.842
		s4.862-10.841,10.843-10.841c5.969,0,10.83,4.863,10.83,10.841S67.413,80.94,61.444,80.94"/>
</g>
</svg>
